Forecasting with the Fable Library
…
Once we train the models, we can go ahead and create a forecast:

fc <- md |>
    forecast(h = h)

The output object provides the point estimate and its distribution:

fc

# A fable: 2,016 x 5 [1h] <?>
# Key:     subba, .model [28]
   subba .model time                               y  .mean
   <chr> <chr>  <dttm>                        <dist>  <dbl>
 1 PGAE  ets    2024-08-18 00:00:00 N(12129, 117134) 12129.
 2 PGAE  ets    2024-08-18 01:00:00 N(13101, 224908) 13101.
 3 PGAE  ets    2024-08-18 02:00:00 N(13808, 347921) 13808.
 4 PGAE  ets    2024-08-18 03:00:00 N(14315, 479430) 14315.
 5 PGAE  ets    2024-08-18 04:00:00 N(14391, 591237) 14391.
 6 PGAE  ets    2024-08-18 05:00:00 N(14044, 664676) 14044.
 7 PGAE  ets    2024-08-18 06:00:00  N(13457, 7e+05) 13457.
 8 PGAE  ets    2024-08-18 07:00:00 N(12437, 680861) 12437.
 9 PGAE  ets    2024-08-18 08:00:00 N(11500, 650340) 11500.
10 PGAE  ets    2024-08-18 09:00:00 N(10911, 646950) 10911.
# ℹ 2,006 more rows
…
fc |>
    dplyr::left_join(test |> dplyr::select(time, subba, actual = y), by = c("time", "subba")) |>
    as.data.frame() |>
    dplyr::group_by(subba, .model) |>
    dplyr::summarise(
        mape = mean(abs(actual - .mean) / actual),
        rmse = (mean((actual - .mean)^2))^0.5
    ) |>
    dplyr::arrange(subba, mape)

`summarise()` has grouped output by 'subba'. You can override using the
`.groups` argument.

# A tibble: 28 × 4
# Groups:   subba [4]
   subba .model    mape  rmse
   <chr> <chr>    <dbl> <dbl>
 1 PGAE  arima   0.0588  930.
 2 PGAE  lm3     0.0764 1035.
 3 PGAE  ets     0.0765 1002.
 4 PGAE  lm1     0.0769 1030.
 5 PGAE  lm2     0.0769 1030.
 6 PGAE  snaive2 0.0807 1214.
 7 PGAE  snaive1 0.0807 1215.
 8 SCE   arima   0.0532 1092.
 9 SCE   ets     0.0792 1794.
10 SCE   snaive1 0.0985 1786.
# ℹ 18 more rows
